
 fb3 UZB /hub_uzb/dimmer6 version 005g  -  working folder: /home/pi/egd/installs/node-openzwave-shared

 --------- before firebase code -------- 
/home/pi/egd/installs/node-openzwave-shared
Initialising OpenZWave 1.4.164 binary addon for Node.JS.
	OpenZWave Security API is ENABLED
	ZWave device db    : /usr/local/etc/openzwave/
	User settings path : /home/pi/egd/installs/node-openzwave-shared/build/Release/../../
	Option Overrides : --ConsoleOutput false --Logging false --SaveConfiguration false --DriverMaxAttempts 3 --PollInterval 500 --SuppressValueRefresh true
os platform: linux
connecting to /dev/ttyACM0
=================== CONNECTED! ====================
=================== DRIVER READY! ====================
scanning homeid=0xd1c52a33...
=================== NODE ADDED! ====================
=================== NODE ADDED! ====================
=================== NODE ADDED! ====================
=================== VALUE ADDED! ====================
=================== VALUE ADDED! ====================
=================== VALUE ADDED! ====================
=================== NOTIFICATION! ====================
node3: notification(2): Notification - NoOperation
=================== VALUE ADDED! ====================
=================== VALUE ADDED! ====================
=================== VALUE ADDED! ====================
=================== VALUE ADDED! ====================
=================== VALUE ADDED! ====================
=================== VALUE ADDED! ====================
=================== NOTIFICATION! ====================
node6: notification(2): Notification - NoOperation
=================== NODE READY! ====================
node1: Z-Wave.Me, ZME_UZB1 USB Stick
node1: name="", type="Static PC Controller", location=""
node1: class 32
node1:   Basic=0
=================== VALUE ADDED! ====================
=================== VALUE ADDED! ====================
=================== VALUE ADDED! ====================
=================== VALUE ADDED! ====================
=================== VALUE ADDED! ====================
=================== VALUE ADDED! ====================
=================== VALUE ADDED! ====================
=================== VALUE ADDED! ====================
=================== VALUE ADDED! ====================
=================== VALUE ADDED! ====================
=================== VALUE ADDED! ====================
=================== VALUE ADDED! ====================
=================== VALUE ADDED! ====================
=================== VALUE ADDED! ====================
=================== VALUE ADDED! ====================
=================== VALUE ADDED! ====================
=================== VALUE ADDED! ====================
=================== VALUE ADDED! ====================
=================== VALUE ADDED! ====================
=================== VALUE ADDED! ====================
=================== VALUE ADDED! ====================
=================== VALUE ADDED! ====================
=================== VALUE ADDED! ====================
=================== VALUE ADDED! ====================
=================== VALUE ADDED! ====================
=================== VALUE ADDED! ====================
=================== VALUE ADDED! ====================
=================== VALUE ADDED! ====================
=================== VALUE ADDED! ====================
=================== VALUE ADDED! ====================
=================== VALUE ADDED! ====================
=================== VALUE ADDED! ====================
=================== VALUE ADDED! ====================
=================== VALUE ADDED! ====================
=================== VALUE ADDED! ====================
=================== VALUE ADDED! ====================
=================== VALUE ADDED! ====================
=================== VALUE ADDED! ====================


 dbg user
fb_ref.on(`value` - firebase value changed!
 m_bUserChanged = true
brightness1 = 90

 firebase log - UZB /hub_uzb/dimmer6 - brightness = 90


 ZWAVE
 getPollInterval()    = 500
 getLibraryVersion()  = Z-Wave 3.99
 getLibraryTypeName() = Static Controller

 zwave7/user1/commands/remove_node = 1




 zwave7/user1/commands   .val().switch1 = 1, add node = 1, remove node = 1
zwave.on(`value changed` =================== VALUE CHANGED! ====================
 m_bUserChanged = true
zwave.on(`value changed` =================== VALUE CHANGED! ====================
 m_bUserChanged = true
zwave.on(`value changed` =================== VALUE CHANGED! ====================
 m_bUserChanged = true


 dbg device
zwave.on(`value changed` =================== VALUE CHANGED! ====================
 m_bUserChanged = false
zwave.on(`value changed` =================== VALUE CHANGED! ====================
 m_bUserChanged = false
zwave.on(`value changed` =================== VALUE CHANGED! ====================
 m_bUserChanged = false
zwave.on(`value changed` =================== VALUE CHANGED! ====================
 m_bUserChanged = false
zwave.on(`value changed` =================== VALUE CHANGED! ====================
 m_bUserChanged = false
zwave.on(`value changed` =================== VALUE CHANGED! ====================
 m_bUserChanged = false
zwave.on(`value changed` =================== VALUE CHANGED! ====================
 m_bUserChanged = false
if (m_bDeviceChanged == true  - value[`value`] = 90
fb_ref.on(`value` - firebase value changed!
 m_bUserChanged = false
brightness1 = 90

 firebase log - UZB /hub_uzb/dimmer6 - brightness = 90
zwave.on(value changed,... / fb_ref.set( { brightness: value[`value`]  });
zwave.on(`value changed` =================== VALUE CHANGED! ====================
 m_bUserChanged = false
zwave.on(`value changed` =================== VALUE CHANGED! ====================
 m_bUserChanged = false
=================== VALUE ADDED! ====================
zwave.on(`value changed` =================== VALUE CHANGED! ====================
 m_bUserChanged = false
zwave.on(`value changed` =================== VALUE CHANGED! ====================
 m_bUserChanged = false
zwave.on(`value changed` =================== VALUE CHANGED! ====================
 m_bUserChanged = false
=================== VALUE ADDED! ====================
zwave.on(`value changed` =================== VALUE CHANGED! ====================
 m_bUserChanged = false
=================== VALUE ADDED! ====================
zwave.on(`value changed` =================== VALUE CHANGED! ====================
 m_bUserChanged = false
zwave.on(`value changed` =================== VALUE CHANGED! ====================
 m_bUserChanged = false
zwave.on(`value changed` =================== VALUE CHANGED! ====================
 m_bUserChanged = false
=================== VALUE ADDED! ====================
zwave.on(`value changed` =================== VALUE CHANGED! ====================
 m_bUserChanged = false
=================== VALUE ADDED! ====================
zwave.on(`value changed` =================== VALUE CHANGED! ====================
 m_bUserChanged = false
=================== NODE READY! ====================
node6: Linear, PD300Z-2 Plug-in Dimmer Module
node6: name="", type="Multilevel Scene Switch", location=""
node6: class 38
node6:   Level=90
node6:   Bright=undefined
node6:   Dim=undefined
node6:   Ignore Start Level=true
node6:   Start Level=0
node6: class 39
node6:   Switch All=On and Off Enabled
node6: class 112
node6:   Ignore Start-Level (Receiving)=true
node6:   Load Sensing=false
node6: class 115
node6:   Powerlevel=Normal
node6:   Timeout=0
node6:   Set Powerlevel=undefined
node6:   Test Node=0
node6:   Test Powerlevel=Normal
node6:   Frame Count=0
node6:   Test=undefined
node6:   Report=undefined
node6:   Test Status=Failed
node6:   Acked Frames=0
node6: class 134
node6:   Library Version=6
node6:   Protocol Version=3.42
node6:   Application Version=5.41
=================== NODE READY! ====================
node3: Aeotec, Smart Energy Switch
node3: name="", type="Binary Power Switch", location=""
node3: class 37
node3:   Switch=true
node3: class 39
node3:   Switch All=On and Off Enabled
node3: class 49
node3:   Power=0.000
node3: class 50
node3:   Energy=7.238
node3:   Previous Reading=7.238
node3:   Interval=249
node3:   Power=0.000
node3:   Previous Reading=7.238
node3:   Interval=249
node3:   Exporting=false
node3:   Reset=undefined
node3: class 112
node3:   Report type=Power
node3:   Blinking behavior=0
node3:   Notification status=None
node3:   Enable Wattage Reports=false
node3:   Wattage threshold=50
node3:   Wattage threshold percent=10
node3:   Default Group Reports=undefined
node3:   Report type G1=8
node3:   Report type G2=0
node3:   Report type G3=0
node3:   Default Group Time=undefined
node3:   Send interval G1=600
node3:   Send interval G2=600
node3:   Send interval G3=600
node3:   Device tag=0
node3:   Reset device=undefined
node3: class 134
node3:   Library Version=3
node3:   Protocol Version=2.78
node3:   Application Version=1.43
=================== SCAN COMPLETE! ====================
scan complete, hit ^C to finish.


 dbg user
fb_ref.on(`value` - firebase value changed!
 m_bUserChanged = true
brightness1 = 16
if (m_bUserChanged == true
fb_ref.on(value,... / zwave.setValue(...

 firebase log - UZB /hub_uzb/dimmer6 - brightness = 16
zwave.on(`value changed` =================== VALUE CHANGED! ====================
 m_bUserChanged = true
dbg1-node6: changed: 38:Level:90->90


 dbg user
fb_ref.on(`value` - firebase value changed!
 m_bUserChanged = true
brightness1 = 25
if (m_bUserChanged == true
fb_ref.on(value,... / zwave.setValue(...

 firebase log - UZB /hub_uzb/dimmer6 - brightness = 25
zwave.on(`value changed` =================== VALUE CHANGED! ====================
 m_bUserChanged = true
dbg1-node6: changed: 38:Level:90->16


 dbg user
fb_ref.on(`value` - firebase value changed!
 m_bUserChanged = true
brightness1 = 50
if (m_bUserChanged == true
fb_ref.on(value,... / zwave.setValue(...

 firebase log - UZB /hub_uzb/dimmer6 - brightness = 50
zwave.on(`value changed` =================== VALUE CHANGED! ====================
 m_bUserChanged = true
dbg1-node6: changed: 38:Level:16->25


 dbg user
fb_ref.on(`value` - firebase value changed!
 m_bUserChanged = true
brightness1 = 90
if (m_bUserChanged == true
fb_ref.on(value,... / zwave.setValue(...

 firebase log - UZB /hub_uzb/dimmer6 - brightness = 90
zwave.on(`value changed` =================== VALUE CHANGED! ====================
 m_bUserChanged = true
dbg1-node6: changed: 38:Level:25->50


 dbg user
fb_ref.on(`value` - firebase value changed!
 m_bUserChanged = true
brightness1 = 50
if (m_bUserChanged == true
fb_ref.on(value,... / zwave.setValue(...

 firebase log - UZB /hub_uzb/dimmer6 - brightness = 50
zwave.on(`value changed` =================== VALUE CHANGED! ====================
 m_bUserChanged = true
dbg1-node6: changed: 38:Level:50->90


 dbg user
fb_ref.on(`value` - firebase value changed!
 m_bUserChanged = true
brightness1 = 25
if (m_bUserChanged == true
fb_ref.on(value,... / zwave.setValue(...

 firebase log - UZB /hub_uzb/dimmer6 - brightness = 25
zwave.on(`value changed` =================== VALUE CHANGED! ====================
 m_bUserChanged = true
dbg1-node6: changed: 38:Level:90->50


 dbg user
fb_ref.on(`value` - firebase value changed!
 m_bUserChanged = true
brightness1 = 50
if (m_bUserChanged == true
fb_ref.on(value,... / zwave.setValue(...

 firebase log - UZB /hub_uzb/dimmer6 - brightness = 50
zwave.on(`value changed` =================== VALUE CHANGED! ====================
 m_bUserChanged = true
dbg1-node6: changed: 38:Level:50->25


 dbg user
fb_ref.on(`value` - firebase value changed!
 m_bUserChanged = true
brightness1 = 25
if (m_bUserChanged == true
fb_ref.on(value,... / zwave.setValue(...

 firebase log - UZB /hub_uzb/dimmer6 - brightness = 25
zwave.on(`value changed` =================== VALUE CHANGED! ====================
 m_bUserChanged = true
dbg1-node6: changed: 38:Level:25->50


 dbg user
fb_ref.on(`value` - firebase value changed!
 m_bUserChanged = true
brightness1 = 16
if (m_bUserChanged == true
fb_ref.on(value,... / zwave.setValue(...

 firebase log - UZB /hub_uzb/dimmer6 - brightness = 16
zwave.on(`value changed` =================== VALUE CHANGED! ====================
 m_bUserChanged = true
dbg1-node6: changed: 38:Level:50->25


 dbg user
fb_ref.on(`value` - firebase value changed!
 m_bUserChanged = true
brightness1 = 25
if (m_bUserChanged == true
fb_ref.on(value,... / zwave.setValue(...

 firebase log - UZB /hub_uzb/dimmer6 - brightness = 25
zwave.on(`value changed` =================== VALUE CHANGED! ====================
 m_bUserChanged = true
dbg1-node6: changed: 38:Level:25->16


 dbg user
fb_ref.on(`value` - firebase value changed!
 m_bUserChanged = true
brightness1 = 90
if (m_bUserChanged == true
fb_ref.on(value,... / zwave.setValue(...

 firebase log - UZB /hub_uzb/dimmer6 - brightness = 90
zwave.on(`value changed` =================== VALUE CHANGED! ====================
 m_bUserChanged = true
dbg1-node6: changed: 38:Level:16->25


 dbg user
fb_ref.on(`value` - firebase value changed!
 m_bUserChanged = true
brightness1 = 25
if (m_bUserChanged == true
fb_ref.on(value,... / zwave.setValue(...

 firebase log - UZB /hub_uzb/dimmer6 - brightness = 25
zwave.on(`value changed` =================== VALUE CHANGED! ====================
 m_bUserChanged = true
dbg1-node6: changed: 38:Level:25->90


 dbg user
fb_ref.on(`value` - firebase value changed!
 m_bUserChanged = true
brightness1 = 90
if (m_bUserChanged == true
fb_ref.on(value,... / zwave.setValue(...

 firebase log - UZB /hub_uzb/dimmer6 - brightness = 90
zwave.on(`value changed` =================== VALUE CHANGED! ====================
 m_bUserChanged = true
dbg1-node6: changed: 38:Level:90->25


 dbg user
fb_ref.on(`value` - firebase value changed!
 m_bUserChanged = true
brightness1 = 25
if (m_bUserChanged == true
fb_ref.on(value,... / zwave.setValue(...

 firebase log - UZB /hub_uzb/dimmer6 - brightness = 25
zwave.on(`value changed` =================== VALUE CHANGED! ====================
 m_bUserChanged = true
dbg1-node6: changed: 38:Level:25->90


 dbg user
fb_ref.on(`value` - firebase value changed!
 m_bUserChanged = true
brightness1 = 90
if (m_bUserChanged == true
fb_ref.on(value,... / zwave.setValue(...

 firebase log - UZB /hub_uzb/dimmer6 - brightness = 90
zwave.on(`value changed` =================== VALUE CHANGED! ====================
 m_bUserChanged = true
dbg1-node6: changed: 38:Level:90->25


 dbg user
fb_ref.on(`value` - firebase value changed!
 m_bUserChanged = true
brightness1 = 16
if (m_bUserChanged == true
fb_ref.on(value,... / zwave.setValue(...

 firebase log - UZB /hub_uzb/dimmer6 - brightness = 16
zwave.on(`value changed` =================== VALUE CHANGED! ====================
 m_bUserChanged = true
dbg1-node6: changed: 38:Level:25->90


 dbg user
fb_ref.on(`value` - firebase value changed!
 m_bUserChanged = true
brightness1 = 25
if (m_bUserChanged == true
fb_ref.on(value,... / zwave.setValue(...

 firebase log - UZB /hub_uzb/dimmer6 - brightness = 25
zwave.on(`value changed` =================== VALUE CHANGED! ====================
 m_bUserChanged = true
dbg1-node6: changed: 38:Level:90->16


 dbg user
fb_ref.on(`value` - firebase value changed!
 m_bUserChanged = true
brightness1 = 50
if (m_bUserChanged == true
fb_ref.on(value,... / zwave.setValue(...

 firebase log - UZB /hub_uzb/dimmer6 - brightness = 50
zwave.on(`value changed` =================== VALUE CHANGED! ====================
 m_bUserChanged = true
dbg1-node6: changed: 38:Level:16->25


 dbg user
fb_ref.on(`value` - firebase value changed!
 m_bUserChanged = true
brightness1 = 90
if (m_bUserChanged == true
fb_ref.on(value,... / zwave.setValue(...

 firebase log - UZB /hub_uzb/dimmer6 - brightness = 90
zwave.on(`value changed` =================== VALUE CHANGED! ====================
 m_bUserChanged = true
dbg1-node6: changed: 38:Level:25->50


 dbg user
fb_ref.on(`value` - firebase value changed!
 m_bUserChanged = true
brightness1 = 25
if (m_bUserChanged == true
fb_ref.on(value,... / zwave.setValue(...

 firebase log - UZB /hub_uzb/dimmer6 - brightness = 25
zwave.on(`value changed` =================== VALUE CHANGED! ====================
 m_bUserChanged = true
dbg1-node6: changed: 38:Level:50->90


 dbg user
fb_ref.on(`value` - firebase value changed!
 m_bUserChanged = true
brightness1 = 0
if (m_bUserChanged == true
fb_ref.on(value,... / zwave.setValue(...

 firebase log - UZB /hub_uzb/dimmer6 - brightness = 0
zwave.on(`value changed` =================== VALUE CHANGED! ====================
 m_bUserChanged = true
dbg1-node6: changed: 38:Level:90->25


 dbg user
fb_ref.on(`value` - firebase value changed!
 m_bUserChanged = true
brightness1 = 25
if (m_bUserChanged == true
fb_ref.on(value,... / zwave.setValue(...

 firebase log - UZB /hub_uzb/dimmer6 - brightness = 25
zwave.on(`value changed` =================== VALUE CHANGED! ====================
 m_bUserChanged = true
dbg1-node6: changed: 38:Level:25->1


 dbg user
fb_ref.on(`value` - firebase value changed!
 m_bUserChanged = true
brightness1 = 50
if (m_bUserChanged == true
fb_ref.on(value,... / zwave.setValue(...

 firebase log - UZB /hub_uzb/dimmer6 - brightness = 50
zwave.on(`value changed` =================== VALUE CHANGED! ====================
 m_bUserChanged = true
dbg1-node6: changed: 38:Level:1->25


 dbg user
fb_ref.on(`value` - firebase value changed!
 m_bUserChanged = true
brightness1 = 90
if (m_bUserChanged == true
fb_ref.on(value,... / zwave.setValue(...

 firebase log - UZB /hub_uzb/dimmer6 - brightness = 90
zwave.on(`value changed` =================== VALUE CHANGED! ====================
 m_bUserChanged = true
dbg1-node6: changed: 38:Level:25->50


 dbg user
fb_ref.on(`value` - firebase value changed!
 m_bUserChanged = true
brightness1 = 25
if (m_bUserChanged == true
fb_ref.on(value,... / zwave.setValue(...

 firebase log - UZB /hub_uzb/dimmer6 - brightness = 25
zwave.on(`value changed` =================== VALUE CHANGED! ====================
 m_bUserChanged = true
dbg1-node6: changed: 38:Level:50->90


 dbg user
fb_ref.on(`value` - firebase value changed!
 m_bUserChanged = true
brightness1 = 0
if (m_bUserChanged == true
fb_ref.on(value,... / zwave.setValue(...

 firebase log - UZB /hub_uzb/dimmer6 - brightness = 0
zwave.on(`value changed` =================== VALUE CHANGED! ====================
 m_bUserChanged = true
dbg1-node6: changed: 38:Level:90->25


 dbg user
fb_ref.on(`value` - firebase value changed!
 m_bUserChanged = true
brightness1 = 90
if (m_bUserChanged == true
fb_ref.on(value,... / zwave.setValue(...

 firebase log - UZB /hub_uzb/dimmer6 - brightness = 90
zwave.on(`value changed` =================== VALUE CHANGED! ====================
 m_bUserChanged = true
dbg1-node6: changed: 38:Level:25->1


 dbg user
fb_ref.on(`value` - firebase value changed!
 m_bUserChanged = true
brightness1 = 0
if (m_bUserChanged == true
fb_ref.on(value,... / zwave.setValue(...

 firebase log - UZB /hub_uzb/dimmer6 - brightness = 0
zwave.on(`value changed` =================== VALUE CHANGED! ====================
 m_bUserChanged = true
dbg1-node6: changed: 38:Level:1->90

 fb3 UZB /hub_uzb/dimmer6 version 005g  -  working folder: /home/pi/egd/installs/node-openzwave-shared

 --------- before firebase code -------- 
/home/pi/egd/installs/node-openzwave-shared
module.js:597
  return process.dlopen(module, path._makeLong(filename));
                 ^

Error: libopenzwave.so.1.4: cannot open shared object file: No such file or directory
    at Error (native)
    at Object.Module._extensions..node (module.js:597:18)
    at Module.load (module.js:487:32)
    at tryModuleLoad (module.js:446:12)
    at Function.Module._load (module.js:438:3)
    at Module.require (module.js:497:17)
    at require (internal/module.js:20:19)
    at Object.<anonymous> (/home/pi/egd/installs/node-openzwave-shared/lib/openzwave-shared.js:24:22)
    at Module._compile (module.js:570:32)
    at Object.Module._extensions..js (module.js:579:10)

 fb3 UZB /hub_uzb/dimmer6 version 005g  -  working folder: /home/pi/egd/installs/node-openzwave-shared

 --------- before firebase code -------- 
/home/pi/egd/installs/node-openzwave-shared
Initialising OpenZWave 1.4.164 binary addon for Node.JS.
	OpenZWave Security API is ENABLED
	ZWave device db    : /usr/local/etc/openzwave/
	User settings path : /home/pi/egd/installs/node-openzwave-shared/build/Release/../../
	Option Overrides : --ConsoleOutput false --Logging false --SaveConfiguration false --DriverMaxAttempts 3 --PollInterval 500 --SuppressValueRefresh true
os platform: linux
connecting to /dev/ttyACM0
=================== CONNECTED! ====================
=================== DRIVER READY! ====================
scanning homeid=0xd1c52a33...
=================== NODE ADDED! ====================
=================== NODE ADDED! ====================
=================== NODE ADDED! ====================
=================== VALUE ADDED! ====================
=================== VALUE ADDED! ====================
=================== VALUE ADDED! ====================
=================== NOTIFICATION! ====================
node3: notification(2): Notification - NoOperation
=================== VALUE ADDED! ====================
=================== VALUE ADDED! ====================
=================== VALUE ADDED! ====================
=================== VALUE ADDED! ====================
=================== VALUE ADDED! ====================
=================== VALUE ADDED! ====================
=================== NOTIFICATION! ====================
node6: notification(2): Notification - NoOperation
=================== NODE READY! ====================
node1: Z-Wave.Me, ZME_UZB1 USB Stick
node1: name="", type="Static PC Controller", location=""
node1: class 32
node1:   Basic=0
=================== VALUE ADDED! ====================
=================== VALUE ADDED! ====================
=================== VALUE ADDED! ====================
=================== VALUE ADDED! ====================
=================== VALUE ADDED! ====================
=================== VALUE ADDED! ====================
=================== VALUE ADDED! ====================
=================== VALUE ADDED! ====================
=================== VALUE ADDED! ====================
=================== VALUE ADDED! ====================
=================== VALUE ADDED! ====================
=================== VALUE ADDED! ====================
=================== VALUE ADDED! ====================
=================== VALUE ADDED! ====================
=================== VALUE ADDED! ====================
=================== VALUE ADDED! ====================
=================== VALUE ADDED! ====================
=================== VALUE ADDED! ====================
=================== VALUE ADDED! ====================
=================== VALUE ADDED! ====================
=================== VALUE ADDED! ====================
=================== VALUE ADDED! ====================
=================== VALUE ADDED! ====================
=================== VALUE ADDED! ====================
=================== VALUE ADDED! ====================
=================== VALUE ADDED! ====================
=================== VALUE ADDED! ====================
=================== VALUE ADDED! ====================
=================== VALUE ADDED! ====================
=================== VALUE ADDED! ====================
=================== VALUE ADDED! ====================
=================== VALUE ADDED! ====================
=================== VALUE ADDED! ====================
=================== VALUE ADDED! ====================
=================== VALUE ADDED! ====================
=================== VALUE ADDED! ====================
=================== VALUE ADDED! ====================
=================== VALUE ADDED! ====================


 dbg device
zwave.on(`value changed` =================== VALUE CHANGED! ====================
 m_bUserChanged = false
zwave.on(`value changed` =================== VALUE CHANGED! ====================
 m_bUserChanged = false
zwave.on(`value changed` =================== VALUE CHANGED! ====================
 m_bUserChanged = false
fb_ref.on(`value` - firebase value changed!
 m_bUserChanged = false
brightness1 = 16

 firebase log - UZB /hub_uzb/dimmer6 - brightness = 16


 ZWAVE
 getPollInterval()    = 500
 getLibraryVersion()  = Z-Wave 3.99
 getLibraryTypeName() = Static Controller

 zwave7/user1/commands/remove_node = 1




 zwave7/user1/commands   .val().switch1 = 1, add node = 1, remove node = 1
zwave.on(`value changed` =================== VALUE CHANGED! ====================
 m_bUserChanged = false
zwave.on(`value changed` =================== VALUE CHANGED! ====================
 m_bUserChanged = false
zwave.on(`value changed` =================== VALUE CHANGED! ====================
 m_bUserChanged = false
zwave.on(`value changed` =================== VALUE CHANGED! ====================
 m_bUserChanged = false
zwave.on(`value changed` =================== VALUE CHANGED! ====================
 m_bUserChanged = false
zwave.on(`value changed` =================== VALUE CHANGED! ====================
 m_bUserChanged = false
zwave.on(`value changed` =================== VALUE CHANGED! ====================
 m_bUserChanged = false
if (m_bDeviceChanged == true  - value[`value`] = 16
fb_ref.on(`value` - firebase value changed!
 m_bUserChanged = false
brightness1 = 16

 firebase log - UZB /hub_uzb/dimmer6 - brightness = 16
zwave.on(value changed,... / fb_ref.set( { brightness: value[`value`]  });
zwave.on(`value changed` =================== VALUE CHANGED! ====================
 m_bUserChanged = false


 dbg device
zwave.on(`value changed` =================== VALUE CHANGED! ====================
 m_bUserChanged = false
=================== VALUE ADDED! ====================
zwave.on(`value changed` =================== VALUE CHANGED! ====================
 m_bUserChanged = false
zwave.on(`value changed` =================== VALUE CHANGED! ====================
 m_bUserChanged = false
zwave.on(`value changed` =================== VALUE CHANGED! ====================
 m_bUserChanged = false
=================== VALUE ADDED! ====================
zwave.on(`value changed` =================== VALUE CHANGED! ====================
 m_bUserChanged = false
=================== VALUE ADDED! ====================
zwave.on(`value changed` =================== VALUE CHANGED! ====================
 m_bUserChanged = false
zwave.on(`value changed` =================== VALUE CHANGED! ====================
 m_bUserChanged = false
zwave.on(`value changed` =================== VALUE CHANGED! ====================
 m_bUserChanged = false
=================== VALUE ADDED! ====================
zwave.on(`value changed` =================== VALUE CHANGED! ====================
 m_bUserChanged = false
=================== VALUE ADDED! ====================
zwave.on(`value changed` =================== VALUE CHANGED! ====================
 m_bUserChanged = false
=================== NODE READY! ====================
node6: Linear, PD300Z-2 Plug-in Dimmer Module
node6: name="", type="Multilevel Scene Switch", location=""
node6: class 38
node6:   Level=16
node6:   Bright=undefined
node6:   Dim=undefined
node6:   Ignore Start Level=true
node6:   Start Level=0
node6: class 39
node6:   Switch All=On and Off Enabled
node6: class 112
node6:   Ignore Start-Level (Receiving)=true
node6:   Load Sensing=false
node6: class 115
node6:   Powerlevel=Normal
node6:   Timeout=0
node6:   Set Powerlevel=undefined
node6:   Test Node=0
node6:   Test Powerlevel=Normal
node6:   Frame Count=0
node6:   Test=undefined
node6:   Report=undefined
node6:   Test Status=Failed
node6:   Acked Frames=0
node6: class 134
node6:   Library Version=6
node6:   Protocol Version=3.42
node6:   Application Version=5.41
=================== NODE READY! ====================
node3: Aeotec, Smart Energy Switch
node3: name="", type="Binary Power Switch", location=""
node3: class 37
node3:   Switch=true
node3: class 39
node3:   Switch All=On and Off Enabled
node3: class 49
node3:   Power=0.000
node3: class 50
node3:   Energy=7.238
node3:   Previous Reading=7.238
node3:   Interval=53
node3:   Power=0.000
node3:   Previous Reading=7.238
node3:   Interval=53
node3:   Exporting=false
node3:   Reset=undefined
node3: class 112
node3:   Report type=Power
node3:   Blinking behavior=0
node3:   Notification status=None
node3:   Enable Wattage Reports=false
node3:   Wattage threshold=50
node3:   Wattage threshold percent=10
node3:   Default Group Reports=undefined
node3:   Report type G1=8
node3:   Report type G2=0
node3:   Report type G3=0
node3:   Default Group Time=undefined
node3:   Send interval G1=600
node3:   Send interval G2=600
node3:   Send interval G3=600
node3:   Device tag=0
node3:   Reset device=undefined
node3: class 134
node3:   Library Version=3
node3:   Protocol Version=2.78
node3:   Application Version=1.43
=================== SCAN COMPLETE! ====================
scan complete, hit ^C to finish.


 dbg user
fb_ref.on(`value` - firebase value changed!
 m_bUserChanged = true
brightness1 = 50
if (m_bUserChanged == true
fb_ref.on(value,... / zwave.setValue(...

 firebase log - UZB /hub_uzb/dimmer6 - brightness = 50
zwave.on(`value changed` =================== VALUE CHANGED! ====================
 m_bUserChanged = true
dbg1-node6: changed: 38:Level:16->16


 dbg user
fb_ref.on(`value` - firebase value changed!
 m_bUserChanged = true
brightness1 = 0
if (m_bUserChanged == true
fb_ref.on(value,... / zwave.setValue(...

 firebase log - UZB /hub_uzb/dimmer6 - brightness = 0
zwave.on(`value changed` =================== VALUE CHANGED! ====================
 m_bUserChanged = true
dbg1-node6: changed: 38:Level:16->50


 dbg user
fb_ref.on(`value` - firebase value changed!
 m_bUserChanged = true
brightness1 = 16
if (m_bUserChanged == true
fb_ref.on(value,... / zwave.setValue(...

 firebase log - UZB /hub_uzb/dimmer6 - brightness = 16
zwave.on(`value changed` =================== VALUE CHANGED! ====================
 m_bUserChanged = true
dbg1-node6: changed: 38:Level:50->1


 dbg user
fb_ref.on(`value` - firebase value changed!
 m_bUserChanged = true
brightness1 = 90
if (m_bUserChanged == true
fb_ref.on(value,... / zwave.setValue(...

 firebase log - UZB /hub_uzb/dimmer6 - brightness = 90
zwave.on(`value changed` =================== VALUE CHANGED! ====================
 m_bUserChanged = true
dbg1-node6: changed: 38:Level:1->16


 dbg user
fb_ref.on(`value` - firebase value changed!
 m_bUserChanged = true
brightness1 = 0
if (m_bUserChanged == true
fb_ref.on(value,... / zwave.setValue(...

 firebase log - UZB /hub_uzb/dimmer6 - brightness = 0
zwave.on(`value changed` =================== VALUE CHANGED! ====================
 m_bUserChanged = true
dbg1-node6: changed: 38:Level:16->90


 dbg user
fb_ref.on(`value` - firebase value changed!
 m_bUserChanged = true
brightness1 = 16
if (m_bUserChanged == true
fb_ref.on(value,... / zwave.setValue(...

 firebase log - UZB /hub_uzb/dimmer6 - brightness = 16
zwave.on(`value changed` =================== VALUE CHANGED! ====================
 m_bUserChanged = true
dbg1-node6: changed: 38:Level:90->1


 dbg user
fb_ref.on(`value` - firebase value changed!
 m_bUserChanged = true
brightness1 = 90
if (m_bUserChanged == true
fb_ref.on(value,... / zwave.setValue(...

 firebase log - UZB /hub_uzb/dimmer6 - brightness = 90
zwave.on(`value changed` =================== VALUE CHANGED! ====================
 m_bUserChanged = true
dbg1-node6: changed: 38:Level:1->16


 dbg user
fb_ref.on(`value` - firebase value changed!
 m_bUserChanged = true
brightness1 = 50
if (m_bUserChanged == true
fb_ref.on(value,... / zwave.setValue(...

 firebase log - UZB /hub_uzb/dimmer6 - brightness = 50
zwave.on(`value changed` =================== VALUE CHANGED! ====================
 m_bUserChanged = true
dbg1-node6: changed: 38:Level:16->90


 dbg user
fb_ref.on(`value` - firebase value changed!
 m_bUserChanged = true
brightness1 = 0
if (m_bUserChanged == true
fb_ref.on(value,... / zwave.setValue(...

 firebase log - UZB /hub_uzb/dimmer6 - brightness = 0
zwave.on(`value changed` =================== VALUE CHANGED! ====================
 m_bUserChanged = true
dbg1-node6: changed: 38:Level:90->50


 dbg user
fb_ref.on(`value` - firebase value changed!
 m_bUserChanged = true
brightness1 = 90
if (m_bUserChanged == true
fb_ref.on(value,... / zwave.setValue(...

 firebase log - UZB /hub_uzb/dimmer6 - brightness = 90
zwave.on(`value changed` =================== VALUE CHANGED! ====================
 m_bUserChanged = true
dbg1-node6: changed: 38:Level:50->1


 dbg user
fb_ref.on(`value` - firebase value changed!
 m_bUserChanged = true
brightness1 = 16
if (m_bUserChanged == true
fb_ref.on(value,... / zwave.setValue(...

 firebase log - UZB /hub_uzb/dimmer6 - brightness = 16
zwave.on(`value changed` =================== VALUE CHANGED! ====================
 m_bUserChanged = true
dbg1-node6: changed: 38:Level:1->81


 dbg user
fb_ref.on(`value` - firebase value changed!
 m_bUserChanged = true
brightness1 = 0
if (m_bUserChanged == true
fb_ref.on(value,... / zwave.setValue(...

 firebase log - UZB /hub_uzb/dimmer6 - brightness = 0
zwave.on(`value changed` =================== VALUE CHANGED! ====================
 m_bUserChanged = true
dbg1-node6: changed: 38:Level:81->15


 dbg user
fb_ref.on(`value` - firebase value changed!
 m_bUserChanged = true
brightness1 = 90
if (m_bUserChanged == true
fb_ref.on(value,... / zwave.setValue(...

 firebase log - UZB /hub_uzb/dimmer6 - brightness = 90
zwave.on(`value changed` =================== VALUE CHANGED! ====================
 m_bUserChanged = true
dbg1-node6: changed: 38:Level:15->2


 dbg user
fb_ref.on(`value` - firebase value changed!
 m_bUserChanged = true
brightness1 = 0
if (m_bUserChanged == true
fb_ref.on(value,... / zwave.setValue(...

 firebase log - UZB /hub_uzb/dimmer6 - brightness = 0
zwave.on(`value changed` =================== VALUE CHANGED! ====================
 m_bUserChanged = true
dbg1-node6: changed: 38:Level:2->89

 fb3 UZB /hub_uzb/dimmer6 version 005g  -  working folder: /home/pi/egd/installs/node-openzwave-shared

 --------- before firebase code -------- 
/home/pi/egd/installs/node-openzwave-shared
Initialising OpenZWave 1.4.164 binary addon for Node.JS.
	OpenZWave Security API is ENABLED
	ZWave device db    : /usr/local/etc/openzwave/
	User settings path : /home/pi/egd/installs/node-openzwave-shared/build/Release/../../
	Option Overrides : --ConsoleOutput false --Logging false --SaveConfiguration false --DriverMaxAttempts 3 --PollInterval 500 --SuppressValueRefresh true
os platform: linux
connecting to /dev/ttyACM0
=================== CONNECTED! ====================
=================== DRIVER READY! ====================
scanning homeid=0xd1c52a33...
=================== NODE ADDED! ====================
=================== NODE ADDED! ====================
=================== NODE ADDED! ====================
=================== VALUE ADDED! ====================
=================== VALUE ADDED! ====================
=================== VALUE ADDED! ====================
=================== NOTIFICATION! ====================
node3: notification(2): Notification - NoOperation
=================== VALUE ADDED! ====================
=================== VALUE ADDED! ====================
=================== VALUE ADDED! ====================
=================== VALUE ADDED! ====================
=================== VALUE ADDED! ====================
=================== VALUE ADDED! ====================
=================== NOTIFICATION! ====================
node6: notification(2): Notification - NoOperation
=================== NODE READY! ====================
node1: Z-Wave.Me, ZME_UZB1 USB Stick
node1: name="", type="Static PC Controller", location=""
node1: class 32
node1:   Basic=0
=================== VALUE ADDED! ====================
=================== VALUE ADDED! ====================
=================== VALUE ADDED! ====================
=================== VALUE ADDED! ====================
=================== VALUE ADDED! ====================
=================== VALUE ADDED! ====================
=================== VALUE ADDED! ====================
=================== VALUE ADDED! ====================
=================== VALUE ADDED! ====================
=================== VALUE ADDED! ====================
=================== VALUE ADDED! ====================
=================== VALUE ADDED! ====================
=================== VALUE ADDED! ====================
=================== VALUE ADDED! ====================
=================== VALUE ADDED! ====================
=================== VALUE ADDED! ====================
=================== VALUE ADDED! ====================
=================== VALUE ADDED! ====================
=================== VALUE ADDED! ====================
=================== VALUE ADDED! ====================
=================== VALUE ADDED! ====================
=================== VALUE ADDED! ====================
=================== VALUE ADDED! ====================
=================== VALUE ADDED! ====================
=================== VALUE ADDED! ====================
=================== VALUE ADDED! ====================
=================== VALUE ADDED! ====================
=================== VALUE ADDED! ====================
=================== VALUE ADDED! ====================
=================== VALUE ADDED! ====================
=================== VALUE ADDED! ====================
=================== VALUE ADDED! ====================
=================== VALUE ADDED! ====================
=================== VALUE ADDED! ====================
=================== VALUE ADDED! ====================
=================== VALUE ADDED! ====================
=================== VALUE ADDED! ====================
=================== VALUE ADDED! ====================


 dbg device
zwave.on(`value changed` =================== VALUE CHANGED! ====================
 m_bUserChanged = false
zwave.on(`value changed` =================== VALUE CHANGED! ====================
 m_bUserChanged = false
zwave.on(`value changed` =================== VALUE CHANGED! ====================
 m_bUserChanged = false
zwave.on(`value changed` =================== VALUE CHANGED! ====================
 m_bUserChanged = false
zwave.on(`value changed` =================== VALUE CHANGED! ====================
 m_bUserChanged = false
zwave.on(`value changed` =================== VALUE CHANGED! ====================
 m_bUserChanged = false


 dbg device
zwave.on(`value changed` =================== VALUE CHANGED! ====================
 m_bUserChanged = false
zwave.on(`value changed` =================== VALUE CHANGED! ====================
 m_bUserChanged = false
zwave.on(`value changed` =================== VALUE CHANGED! ====================
 m_bUserChanged = false
zwave.on(`value changed` =================== VALUE CHANGED! ====================
 m_bUserChanged = false
if (m_bDeviceChanged == true  - value[`value`] = 0
fb_ref.on(`value` - firebase value changed!
 m_bUserChanged = false
brightness1 = 0

 firebase log - UZB /hub_uzb/dimmer6 - brightness = 0
zwave.on(value changed,... / fb_ref.set( { brightness: value[`value`]  });
zwave.on(`value changed` =================== VALUE CHANGED! ====================
 m_bUserChanged = false
zwave.on(`value changed` =================== VALUE CHANGED! ====================
 m_bUserChanged = false
=================== VALUE ADDED! ====================
zwave.on(`value changed` =================== VALUE CHANGED! ====================
 m_bUserChanged = false
zwave.on(`value changed` =================== VALUE CHANGED! ====================
 m_bUserChanged = false
zwave.on(`value changed` =================== VALUE CHANGED! ====================
 m_bUserChanged = false
=================== VALUE ADDED! ====================
zwave.on(`value changed` =================== VALUE CHANGED! ====================
 m_bUserChanged = false
=================== VALUE ADDED! ====================
zwave.on(`value changed` =================== VALUE CHANGED! ====================
 m_bUserChanged = false
zwave.on(`value changed` =================== VALUE CHANGED! ====================
 m_bUserChanged = false
zwave.on(`value changed` =================== VALUE CHANGED! ====================
 m_bUserChanged = false
=================== VALUE ADDED! ====================
zwave.on(`value changed` =================== VALUE CHANGED! ====================
 m_bUserChanged = false
=================== VALUE ADDED! ====================
zwave.on(`value changed` =================== VALUE CHANGED! ====================
 m_bUserChanged = false
=================== NODE READY! ====================
node6: Linear, PD300Z-2 Plug-in Dimmer Module
node6: name="", type="Multilevel Scene Switch", location=""
node6: class 38
node6:   Level=0
node6:   Bright=undefined
node6:   Dim=undefined
node6:   Ignore Start Level=true
node6:   Start Level=0
node6: class 39
node6:   Switch All=On and Off Enabled
node6: class 112
node6:   Ignore Start-Level (Receiving)=true
node6:   Load Sensing=false
node6: class 115
node6:   Powerlevel=Normal
node6:   Timeout=0
node6:   Set Powerlevel=undefined
node6:   Test Node=0
node6:   Test Powerlevel=Normal
node6:   Frame Count=0
node6:   Test=undefined
node6:   Report=undefined
node6:   Test Status=Failed
node6:   Acked Frames=0
node6: class 134
node6:   Library Version=6
node6:   Protocol Version=3.42
node6:   Application Version=5.41
=================== NODE READY! ====================
node3: Aeotec, Smart Energy Switch
node3: name="", type="Binary Power Switch", location=""
node3: class 37
node3:   Switch=true
node3: class 39
node3:   Switch All=On and Off Enabled
node3: class 49
node3:   Power=0.000
node3: class 50
node3:   Energy=7.238
node3:   Previous Reading=7.238
node3:   Interval=31091
node3:   Power=0.000
node3:   Previous Reading=7.238
node3:   Interval=31091
node3:   Exporting=false
node3:   Reset=undefined
node3: class 112
node3:   Report type=Power
node3:   Blinking behavior=0
node3:   Notification status=None
node3:   Enable Wattage Reports=false
node3:   Wattage threshold=50
node3:   Wattage threshold percent=10
node3:   Default Group Reports=undefined
node3:   Report type G1=8
node3:   Report type G2=0
node3:   Report type G3=0
node3:   Default Group Time=undefined
node3:   Send interval G1=600
node3:   Send interval G2=600
node3:   Send interval G3=600
node3:   Device tag=0
node3:   Reset device=undefined
node3: class 134
node3:   Library Version=3
node3:   Protocol Version=2.78
node3:   Application Version=1.43
=================== SCAN COMPLETE! ====================
scan complete, hit ^C to finish.

 fb3 UZB /hub_uzb/dimmer6 version 005g  -  working folder: /home/pi/egd/installs/node-openzwave-shared

 --------- before firebase code -------- 
/home/pi/egd/installs/node-openzwave-shared
Initialising OpenZWave 1.4.164 binary addon for Node.JS.
	OpenZWave Security API is ENABLED
	ZWave device db    : /usr/local/etc/openzwave/
	User settings path : /home/pi/egd/installs/node-openzwave-shared/build/Release/../../
	Option Overrides : --ConsoleOutput false --Logging false --SaveConfiguration false --DriverMaxAttempts 3 --PollInterval 500 --SuppressValueRefresh true
os platform: linux
connecting to /dev/ttyACM0
=================== CONNECTED! ====================
=================== DRIVER READY! ====================
scanning homeid=0xd1c52a33...
=================== NODE ADDED! ====================
=================== NODE ADDED! ====================
=================== NODE ADDED! ====================
=================== VALUE ADDED! ====================
=================== VALUE ADDED! ====================
=================== VALUE ADDED! ====================
=================== NOTIFICATION! ====================
node3: notification(2): Notification - NoOperation
=================== VALUE ADDED! ====================
=================== VALUE ADDED! ====================
=================== VALUE ADDED! ====================
=================== VALUE ADDED! ====================
=================== VALUE ADDED! ====================
=================== VALUE ADDED! ====================
=================== NOTIFICATION! ====================
node6: notification(2): Notification - NoOperation
=================== NODE READY! ====================
node1: Z-Wave.Me, ZME_UZB1 USB Stick
node1: name="", type="Static PC Controller", location=""
node1: class 32
node1:   Basic=0
=================== VALUE ADDED! ====================
=================== VALUE ADDED! ====================
=================== VALUE ADDED! ====================
=================== VALUE ADDED! ====================
=================== VALUE ADDED! ====================
=================== VALUE ADDED! ====================
=================== VALUE ADDED! ====================
=================== VALUE ADDED! ====================
=================== VALUE ADDED! ====================
=================== VALUE ADDED! ====================
=================== VALUE ADDED! ====================
=================== VALUE ADDED! ====================
=================== VALUE ADDED! ====================
=================== VALUE ADDED! ====================
=================== VALUE ADDED! ====================
=================== VALUE ADDED! ====================
=================== VALUE ADDED! ====================
=================== VALUE ADDED! ====================
=================== VALUE ADDED! ====================
=================== VALUE ADDED! ====================


 dbg user
fb_ref.on(`value` - firebase value changed!
 m_bUserChanged = true
brightness1 = 90

 firebase log - UZB /hub_uzb/dimmer6 - brightness = 90


 ZWAVE
 getPollInterval()    = 500
 getLibraryVersion()  = Z-Wave 3.99
 getLibraryTypeName() = Static Controller

 zwave7/user1/commands/remove_node = 1




 zwave7/user1/commands   .val().switch1 = 1, add node = 1, remove node = 1
=================== VALUE ADDED! ====================
=================== VALUE ADDED! ====================
=================== VALUE ADDED! ====================
=================== VALUE ADDED! ====================
=================== VALUE ADDED! ====================
=================== VALUE ADDED! ====================
=================== VALUE ADDED! ====================
=================== VALUE ADDED! ====================
=================== VALUE ADDED! ====================
=================== VALUE ADDED! ====================
=================== VALUE ADDED! ====================
=================== VALUE ADDED! ====================
=================== VALUE ADDED! ====================
=================== VALUE ADDED! ====================
=================== VALUE ADDED! ====================
=================== VALUE ADDED! ====================
=================== VALUE ADDED! ====================
=================== VALUE ADDED! ====================
zwave.on(`value changed` =================== VALUE CHANGED! ====================
 m_bUserChanged = true
zwave.on(`value changed` =================== VALUE CHANGED! ====================
 m_bUserChanged = true
zwave.on(`value changed` =================== VALUE CHANGED! ====================
 m_bUserChanged = true
zwave.on(`value changed` =================== VALUE CHANGED! ====================
 m_bUserChanged = true
zwave.on(`value changed` =================== VALUE CHANGED! ====================
 m_bUserChanged = true
zwave.on(`value changed` =================== VALUE CHANGED! ====================
 m_bUserChanged = true
zwave.on(`value changed` =================== VALUE CHANGED! ====================
 m_bUserChanged = true


 dbg device
zwave.on(`value changed` =================== VALUE CHANGED! ====================
 m_bUserChanged = false
zwave.on(`value changed` =================== VALUE CHANGED! ====================
 m_bUserChanged = false
zwave.on(`value changed` =================== VALUE CHANGED! ====================
 m_bUserChanged = false
if (m_bDeviceChanged == true  - value[`value`] = 90
fb_ref.on(`value` - firebase value changed!
 m_bUserChanged = false
brightness1 = 90

 firebase log - UZB /hub_uzb/dimmer6 - brightness = 90
zwave.on(value changed,... / fb_ref.set( { brightness: value[`value`]  });
zwave.on(`value changed` =================== VALUE CHANGED! ====================
 m_bUserChanged = false
zwave.on(`value changed` =================== VALUE CHANGED! ====================
 m_bUserChanged = false
=================== VALUE ADDED! ====================


 dbg device
zwave.on(`value changed` =================== VALUE CHANGED! ====================
 m_bUserChanged = false
zwave.on(`value changed` =================== VALUE CHANGED! ====================
 m_bUserChanged = false
zwave.on(`value changed` =================== VALUE CHANGED! ====================
 m_bUserChanged = false
=================== VALUE ADDED! ====================
zwave.on(`value changed` =================== VALUE CHANGED! ====================
 m_bUserChanged = false
=================== VALUE ADDED! ====================
zwave.on(`value changed` =================== VALUE CHANGED! ====================
 m_bUserChanged = false
zwave.on(`value changed` =================== VALUE CHANGED! ====================
 m_bUserChanged = false
zwave.on(`value changed` =================== VALUE CHANGED! ====================
 m_bUserChanged = false
=================== VALUE ADDED! ====================
zwave.on(`value changed` =================== VALUE CHANGED! ====================
 m_bUserChanged = false
=================== VALUE ADDED! ====================
zwave.on(`value changed` =================== VALUE CHANGED! ====================
 m_bUserChanged = false
=================== NODE READY! ====================
node6: Linear, PD300Z-2 Plug-in Dimmer Module
node6: name="", type="Multilevel Scene Switch", location=""
node6: class 38
node6:   Level=90
node6:   Bright=undefined
node6:   Dim=undefined
node6:   Ignore Start Level=true
node6:   Start Level=0
node6: class 39
node6:   Switch All=On and Off Enabled
node6: class 112
node6:   Ignore Start-Level (Receiving)=true
node6:   Load Sensing=false
node6: class 115
node6:   Powerlevel=Normal
node6:   Timeout=0
node6:   Set Powerlevel=undefined
node6:   Test Node=0
node6:   Test Powerlevel=Normal
node6:   Frame Count=0
node6:   Test=undefined
node6:   Report=undefined
node6:   Test Status=Failed
node6:   Acked Frames=0
node6: class 134
node6:   Library Version=6
node6:   Protocol Version=3.42
node6:   Application Version=5.41
=================== NODE READY! ====================
node3: Aeotec, Smart Energy Switch
node3: name="", type="Binary Power Switch", location=""
node3: class 37
node3:   Switch=true
node3: class 39
node3:   Switch All=On and Off Enabled
node3: class 49
node3:   Power=0.000
node3: class 50
node3:   Energy=7.238
node3:   Previous Reading=7.238
node3:   Interval=32
node3:   Power=0.000
node3:   Previous Reading=7.238
node3:   Interval=32
node3:   Exporting=false
node3:   Reset=undefined
node3: class 112
node3:   Report type=Power
node3:   Blinking behavior=0
node3:   Notification status=None
node3:   Enable Wattage Reports=false
node3:   Wattage threshold=50
node3:   Wattage threshold percent=10
node3:   Default Group Reports=undefined
node3:   Report type G1=8
node3:   Report type G2=0
node3:   Report type G3=0
node3:   Default Group Time=undefined
node3:   Send interval G1=600
node3:   Send interval G2=600
node3:   Send interval G3=600
node3:   Device tag=0
node3:   Reset device=undefined
node3: class 134
node3:   Library Version=3
node3:   Protocol Version=2.78
node3:   Application Version=1.43
=================== SCAN COMPLETE! ====================
scan complete, hit ^C to finish.


 dbg user
fb_ref.on(`value` - firebase value changed!
 m_bUserChanged = true
brightness1 = 0
if (m_bUserChanged == true
fb_ref.on(value,... / zwave.setValue(...

 firebase log - UZB /hub_uzb/dimmer6 - brightness = 0
zwave.on(`value changed` =================== VALUE CHANGED! ====================
 m_bUserChanged = true
dbg1-node6: changed: 38:Level:90->90


 dbg user
fb_ref.on(`value` - firebase value changed!
 m_bUserChanged = true
brightness1 = 90
if (m_bUserChanged == true
fb_ref.on(value,... / zwave.setValue(...

 firebase log - UZB /hub_uzb/dimmer6 - brightness = 90
zwave.on(`value changed` =================== VALUE CHANGED! ====================
 m_bUserChanged = true
dbg1-node6: changed: 38:Level:90->1


 dbg user
fb_ref.on(`value` - firebase value changed!
 m_bUserChanged = true
brightness1 = 0
if (m_bUserChanged == true
fb_ref.on(value,... / zwave.setValue(...

 firebase log - UZB /hub_uzb/dimmer6 - brightness = 0
zwave.on(`value changed` =================== VALUE CHANGED! ====================
 m_bUserChanged = true
dbg1-node6: changed: 38:Level:1->90


 dbg user
fb_ref.on(`value` - firebase value changed!
 m_bUserChanged = true
brightness1 = 50
if (m_bUserChanged == true
fb_ref.on(value,... / zwave.setValue(...

 firebase log - UZB /hub_uzb/dimmer6 - brightness = 50
zwave.on(`value changed` =================== VALUE CHANGED! ====================
 m_bUserChanged = true
dbg1-node6: changed: 38:Level:90->1


 dbg user
fb_ref.on(`value` - firebase value changed!
 m_bUserChanged = true
brightness1 = 0
if (m_bUserChanged == true
fb_ref.on(value,... / zwave.setValue(...

 firebase log - UZB /hub_uzb/dimmer6 - brightness = 0
zwave.on(`value changed` =================== VALUE CHANGED! ====================
 m_bUserChanged = true
dbg1-node6: changed: 38:Level:1->50


 dbg user
fb_ref.on(`value` - firebase value changed!
 m_bUserChanged = true
brightness1 = 50
if (m_bUserChanged == true
fb_ref.on(value,... / zwave.setValue(...

 firebase log - UZB /hub_uzb/dimmer6 - brightness = 50
zwave.on(`value changed` =================== VALUE CHANGED! ====================
 m_bUserChanged = true
dbg1-node6: changed: 38:Level:50->1


 dbg user
fb_ref.on(`value` - firebase value changed!
 m_bUserChanged = true
brightness1 = 0
if (m_bUserChanged == true
fb_ref.on(value,... / zwave.setValue(...

 firebase log - UZB /hub_uzb/dimmer6 - brightness = 0
zwave.on(`value changed` =================== VALUE CHANGED! ====================
 m_bUserChanged = true
dbg1-node6: changed: 38:Level:1->50


 dbg user
fb_ref.on(`value` - firebase value changed!
 m_bUserChanged = true
brightness1 = 90
if (m_bUserChanged == true
fb_ref.on(value,... / zwave.setValue(...

 firebase log - UZB /hub_uzb/dimmer6 - brightness = 90
zwave.on(`value changed` =================== VALUE CHANGED! ====================
 m_bUserChanged = true
dbg1-node6: changed: 38:Level:50->1


 dbg user
fb_ref.on(`value` - firebase value changed!
 m_bUserChanged = true
brightness1 = 16
if (m_bUserChanged == true
fb_ref.on(value,... / zwave.setValue(...

 firebase log - UZB /hub_uzb/dimmer6 - brightness = 16
zwave.on(`value changed` =================== VALUE CHANGED! ====================
 m_bUserChanged = true
dbg1-node6: changed: 38:Level:1->90


 dbg user
fb_ref.on(`value` - firebase value changed!
 m_bUserChanged = true
brightness1 = 90
if (m_bUserChanged == true
fb_ref.on(value,... / zwave.setValue(...

 firebase log - UZB /hub_uzb/dimmer6 - brightness = 90
zwave.on(`value changed` =================== VALUE CHANGED! ====================
 m_bUserChanged = true
dbg1-node6: changed: 38:Level:90->16

 fb3 UZB /hub_uzb/dimmer6 version 005g  -  working folder: /home/pi/egd/installs/node-openzwave-shared

 --------- before firebase code -------- 
/home/pi/egd/installs/node-openzwave-shared
Initialising OpenZWave 1.4.164 binary addon for Node.JS.
	OpenZWave Security API is ENABLED
	ZWave device db    : /usr/local/etc/openzwave/
	User settings path : /home/pi/egd/installs/node-openzwave-shared/build/Release/../../
	Option Overrides : --ConsoleOutput false --Logging false --SaveConfiguration false --DriverMaxAttempts 3 --PollInterval 500 --SuppressValueRefresh true
os platform: linux
connecting to /dev/ttyACM0
=================== CONNECTED! ====================
=================== DRIVER READY! ====================
scanning homeid=0xd1c52a33...
=================== NODE ADDED! ====================
=================== NODE ADDED! ====================
=================== NODE ADDED! ====================
=================== VALUE ADDED! ====================
=================== VALUE ADDED! ====================
=================== VALUE ADDED! ====================
=================== NOTIFICATION! ====================
node3: notification(2): Notification - NoOperation
=================== VALUE ADDED! ====================
=================== VALUE ADDED! ====================
=================== VALUE ADDED! ====================
=================== VALUE ADDED! ====================
=================== VALUE ADDED! ====================
=================== VALUE ADDED! ====================
=================== NOTIFICATION! ====================
node6: notification(2): Notification - NoOperation
=================== NODE READY! ====================
node1: Z-Wave.Me, ZME_UZB1 USB Stick
node1: name="", type="Static PC Controller", location=""
node1: class 32
node1:   Basic=0
=================== VALUE ADDED! ====================
=================== VALUE ADDED! ====================
=================== VALUE ADDED! ====================
=================== VALUE ADDED! ====================
=================== VALUE ADDED! ====================
=================== VALUE ADDED! ====================
=================== VALUE ADDED! ====================
=================== VALUE ADDED! ====================
=================== VALUE ADDED! ====================
=================== VALUE ADDED! ====================
=================== VALUE ADDED! ====================
=================== VALUE ADDED! ====================
=================== VALUE ADDED! ====================
=================== VALUE ADDED! ====================
=================== VALUE ADDED! ====================
=================== VALUE ADDED! ====================
=================== VALUE ADDED! ====================
=================== VALUE ADDED! ====================
=================== VALUE ADDED! ====================
=================== VALUE ADDED! ====================


 dbg user
fb_ref.on(`value` - firebase value changed!
 m_bUserChanged = true
brightness1 = 0

 firebase log - UZB /hub_uzb/dimmer6 - brightness = 0


 ZWAVE
 getPollInterval()    = 500
 getLibraryVersion()  = Z-Wave 3.99
 getLibraryTypeName() = Static Controller

 zwave7/user1/commands/remove_node = 1




 zwave7/user1/commands   .val().switch1 = 1, add node = 1, remove node = 1
=================== VALUE ADDED! ====================
=================== VALUE ADDED! ====================
=================== VALUE ADDED! ====================
=================== VALUE ADDED! ====================
=================== VALUE ADDED! ====================
=================== VALUE ADDED! ====================
=================== VALUE ADDED! ====================
=================== VALUE ADDED! ====================
=================== VALUE ADDED! ====================
=================== VALUE ADDED! ====================
=================== VALUE ADDED! ====================
=================== VALUE ADDED! ====================
=================== VALUE ADDED! ====================
=================== VALUE ADDED! ====================
=================== VALUE ADDED! ====================
=================== VALUE ADDED! ====================
=================== VALUE ADDED! ====================
=================== VALUE ADDED! ====================
zwave.on(`value changed` =================== VALUE CHANGED! ====================
 m_bUserChanged = true
zwave.on(`value changed` =================== VALUE CHANGED! ====================
 m_bUserChanged = true
zwave.on(`value changed` =================== VALUE CHANGED! ====================
 m_bUserChanged = true


 dbg device
zwave.on(`value changed` =================== VALUE CHANGED! ====================
 m_bUserChanged = false
zwave.on(`value changed` =================== VALUE CHANGED! ====================
 m_bUserChanged = false
zwave.on(`value changed` =================== VALUE CHANGED! ====================
 m_bUserChanged = false
zwave.on(`value changed` =================== VALUE CHANGED! ====================
 m_bUserChanged = false
zwave.on(`value changed` =================== VALUE CHANGED! ====================
 m_bUserChanged = false
zwave.on(`value changed` =================== VALUE CHANGED! ====================
 m_bUserChanged = false
zwave.on(`value changed` =================== VALUE CHANGED! ====================
 m_bUserChanged = false
if (m_bDeviceChanged == true  - value[`value`] = 0
fb_ref.on(`value` - firebase value changed!
 m_bUserChanged = false
brightness1 = 0

 firebase log - UZB /hub_uzb/dimmer6 - brightness = 0
zwave.on(value changed,... / fb_ref.set( { brightness: value[`value`]  });
zwave.on(`value changed` =================== VALUE CHANGED! ====================
 m_bUserChanged = false
zwave.on(`value changed` =================== VALUE CHANGED! ====================
 m_bUserChanged = false
=================== VALUE ADDED! ====================


 dbg device
zwave.on(`value changed` =================== VALUE CHANGED! ====================
 m_bUserChanged = false
zwave.on(`value changed` =================== VALUE CHANGED! ====================
 m_bUserChanged = false
zwave.on(`value changed` =================== VALUE CHANGED! ====================
 m_bUserChanged = false
=================== VALUE ADDED! ====================
zwave.on(`value changed` =================== VALUE CHANGED! ====================
 m_bUserChanged = false
=================== VALUE ADDED! ====================
zwave.on(`value changed` =================== VALUE CHANGED! ====================
 m_bUserChanged = false
zwave.on(`value changed` =================== VALUE CHANGED! ====================
 m_bUserChanged = false
zwave.on(`value changed` =================== VALUE CHANGED! ====================
 m_bUserChanged = false
=================== VALUE ADDED! ====================
zwave.on(`value changed` =================== VALUE CHANGED! ====================
 m_bUserChanged = false
=================== VALUE ADDED! ====================
zwave.on(`value changed` =================== VALUE CHANGED! ====================
 m_bUserChanged = false
=================== NODE READY! ====================
node6: Linear, PD300Z-2 Plug-in Dimmer Module
node6: name="", type="Multilevel Scene Switch", location=""
node6: class 38
node6:   Level=0
node6:   Bright=undefined
node6:   Dim=undefined
node6:   Ignore Start Level=true
node6:   Start Level=0
node6: class 39
node6:   Switch All=On and Off Enabled
node6: class 112
node6:   Ignore Start-Level (Receiving)=true
node6:   Load Sensing=false
node6: class 115
node6:   Powerlevel=Normal
node6:   Timeout=0
node6:   Set Powerlevel=undefined
node6:   Test Node=0
node6:   Test Powerlevel=Normal
node6:   Frame Count=0
node6:   Test=undefined
node6:   Report=undefined
node6:   Test Status=Failed
node6:   Acked Frames=0
node6: class 134
node6:   Library Version=6
node6:   Protocol Version=3.42
node6:   Application Version=5.41
=================== NODE READY! ====================
node3: Aeotec, Smart Energy Switch
node3: name="", type="Binary Power Switch", location=""
node3: class 37
node3:   Switch=true
node3: class 39
node3:   Switch All=On and Off Enabled
node3: class 49
node3:   Power=0.000
node3: class 50
node3:   Energy=7.238
node3:   Previous Reading=7.238
node3:   Interval=174
node3:   Power=0.000
node3:   Previous Reading=7.238
node3:   Interval=174
node3:   Exporting=false
node3:   Reset=undefined
node3: class 112
node3:   Report type=Power
node3:   Blinking behavior=0
node3:   Notification status=None
node3:   Enable Wattage Reports=false
node3:   Wattage threshold=50
node3:   Wattage threshold percent=10
node3:   Default Group Reports=undefined
node3:   Report type G1=8
node3:   Report type G2=0
node3:   Report type G3=0
node3:   Default Group Time=undefined
node3:   Send interval G1=600
node3:   Send interval G2=600
node3:   Send interval G3=600
node3:   Device tag=0
node3:   Reset device=undefined
node3: class 134
node3:   Library Version=3
node3:   Protocol Version=2.78
node3:   Application Version=1.43
=================== SCAN COMPLETE! ====================
scan complete, hit ^C to finish.


 dbg user
fb_ref.on(`value` - firebase value changed!
 m_bUserChanged = true
brightness1 = 50
if (m_bUserChanged == true
fb_ref.on(value,... / zwave.setValue(...

 firebase log - UZB /hub_uzb/dimmer6 - brightness = 50
zwave.on(`value changed` =================== VALUE CHANGED! ====================
 m_bUserChanged = true
dbg1-node6: changed: 38:Level:0->1
zwave.on(`value changed` =================== VALUE CHANGED! ====================
 m_bUserChanged = true
dbg1-node6: changed: 38:Level:1->3


 dbg user
fb_ref.on(`value` - firebase value changed!
 m_bUserChanged = true
brightness1 = 16
if (m_bUserChanged == true
fb_ref.on(value,... / zwave.setValue(...

 firebase log - UZB /hub_uzb/dimmer6 - brightness = 16


 dbg device
zwave.on(`value changed` =================== VALUE CHANGED! ====================
 m_bUserChanged = false
dbg1-node6: changed: 38:Level:3->16
if (m_bDeviceChanged == true  - value[`value`] = 16
fb_ref.on(`value` - firebase value changed!
 m_bUserChanged = false
brightness1 = 16

 firebase log - UZB /hub_uzb/dimmer6 - brightness = 16
zwave.on(value changed,... / fb_ref.set( { brightness: value[`value`]  });


 dbg user
fb_ref.on(`value` - firebase value changed!
 m_bUserChanged = true
brightness1 = 0
if (m_bUserChanged == true
fb_ref.on(value,... / zwave.setValue(...

 firebase log - UZB /hub_uzb/dimmer6 - brightness = 0


 dbg device
zwave.on(`value changed` =================== VALUE CHANGED! ====================
 m_bUserChanged = false
dbg1-node6: changed: 38:Level:16->10
if (m_bDeviceChanged == true  - value[`value`] = 10
fb_ref.on(`value` - firebase value changed!
 m_bUserChanged = false
brightness1 = 10

 firebase log - UZB /hub_uzb/dimmer6 - brightness = 10
zwave.on(value changed,... / fb_ref.set( { brightness: value[`value`]  });
